macpie • macpie
…
qc_stats$stats_summary
#> # A tibble: 83 × 6
#>    combined_id       sd_value mad_value group_median z_score    IQR
#>    <chr>                <dbl>     <dbl>        <dbl>   <dbl>  <dbl>
#>  1 5-azacytidine_0.1    2592.     3035.        51333  -0.32   2574.
#>  2 5-azacytidine_1      3729.     3194.        55751   0.141  3630.
#>  3 5-azacytidine_10     3977.     1924.        45802  -0.899  3722.
#>  4 Abemaciclib_0.1      5607.     5327.        61798   0.773  5498 
#>  5 Abemaciclib_1        3809.     4589.        52869  -0.16   3788 
#>  6 Abemaciclib_10      15607.    10546.        49873  -0.473 14938.
#>  7 Adavosertib_0.1      6504.     6171.        54224  -0.018  6377 
#>  8 Adavosertib_1        8625.     7844.        53566  -0.087  8432.
#>  9 Adavosertib_10       9917.    11810.        43437  -1.15   9856.
#> 10 Anastrozole_0.1      1668.     2099.        58913   0.472  1662.
#> # ℹ 73 more rows
…
The outputs from the analyses above can be represented in table
format.

summarise_de(mac, lfc_threshold = 1, padj_threshold = 0.01, multi=TRUE)
#> # A tibble: 27 × 7
#>    combined_id  Total_genes_tested Significantly_upregu…¹ Significantly_downre…²
#>    <chr>                     <int>                  <int>                  <int>
#>  1 Abemaciclib…              20114                     36                     46
#>  2 Adavosertib…              20114                    307                    104
#>  3 Anastrozole…              20114                      0                      1
#>  4 Azd.5991_10               20114                      0                      0
#>  5 Camptotheci…              20114                   1108                   1327
#>  6 Capivaserti…              20114                     22                     14
#>  7 Ceralaserti…              20114                    174                     88
#>  8 Chlorambuci…              20114                      0                      0
#>  9 Cytarabine_…              20114                      8                      6
#> 10 Erlotinib_h…              20114                    252                    155
#> # ℹ 17 more rows
#> # ℹ abbreviated names: ¹​Significantly_upregulated, ²​Significantly_downregulated
#> # ℹ 3 more variables: Total_significant <int>, padj_threshold <dbl>,
#> #   Log2FC_threshold <dbl>
…
