macpie • macpie
…
For visualisation purpose, we only use high concentration treatments
in this workshop.

treatments <- combined %>%
  filter(Concentration_1 == 10) %>%
  select(combined_id) %>%
  filter(!grepl("DMSO", combined_id)) %>%
  pull() %>%
  unique()
combined <- compute_multi_de(combined, treatments, control_samples = "DMSO_0", method = "edgeR", num_cores = 2, batch = batch)

Summarise the outputs from single comparison in a table

summarise_de(combined, lfc_threshold = 1, padj_threshold = 0.01, multi=TRUE)
#> # A tibble: 27 × 7
#>    combined_id  Total_genes_tested Significantly_upregu…¹ Significantly_downre…²
#>    <chr>                     <int>                  <int>                  <int>
#>  1 Abemaciclib…              25736                    127                     24
#>  2 Adavosertib…              25736                    125                     23
#>  3 Anastrozole…              25736                      0                      0
#>  4 Azd.5991_10               25736                      1                      0
#>  5 Camptotheci…              25736                    829                    521
#>  6 Capivaserti…              25736                    126                     32
#>  7 Ceralaserti…              25736                    125                     63
#>  8 Chlorambuci…              25736                      0                      0
#>  9 Cytarabine_…              25736                    196                     38
#> 10 Erlotinib_h…              25736                    594                    322
#> # ℹ 17 more rows
#> # ℹ abbreviated names: ¹​Significantly_upregulated, ²​Significantly_downregulated
#> # ℹ 3 more variables: Total_significant <int>, padj_threshold <dbl>,
#> #   Log2FC_threshold <dbl>
…
