Transcriptional analyses • macpie
…
The outputs from the analyses above can be represented in table
format.

summarise_de(mac, lfc_threshold = 1, padj_threshold = 0.01, multi=TRUE)
#> # A tibble: 27 × 7
#>    combined_id  Total_genes_tested Significantly_upregu…¹ Significantly_downre…²
#>    <chr>                     <int>                  <int>                  <int>
#>  1 Paclitaxel_…               5660                    629                     91
#>  2 SN01004236_…               5660                      0                      0
#>  3 SN01004272_…               5660                      1                      0
#>  4 SN01004569_…               5660                    257                     49
#>  5 SN01004614_…               5660                    220                     36
#>  6 SN01004734_…               5660                      0                      0
#>  7 SN01005060_…               5660                     13                      4
#>  8 SN01005979_…               5660                    936                    853
#>  9 SN01731107_…               5660                      4                      3
#> 10 SN01731137_…               5660                    148                     69
#> # ℹ 17 more rows
#> # ℹ abbreviated names: ¹​Significantly_upregulated, ²​Significantly_downregulated
#> # ℹ 3 more variables: Total_significant <int>, padj_threshold <dbl>,
#> #   Log2FC_threshold <dbl>
…
