differential_expression • macpie
…
The outputs from the analyses above can be represented in table
format.

summarise_de(mac, lfc_threshold = 1, padj_threshold = 0.01, multi=TRUE)
#> # A tibble: 27 × 7
#>    combined_id  Total_genes_tested Significantly_upregu…¹ Significantly_downre…²
#>    <chr>                     <int>                  <int>                  <int>
#>  1 Abemaciclib…              20114                     36                     46
#>  2 Adavosertib…              20114                    307                    104
#>  3 Anastrozole…              20114                      0                      1
#>  4 Azd.5991_10               20114                      0                      0
#>  5 Camptotheci…              20114                   1108                   1327
#>  6 Capivaserti…              20114                     22                     14
#>  7 Ceralaserti…              20114                    174                     88
#>  8 Chlorambuci…              20114                      0                      0
#>  9 Cytarabine_…              20114                      8                      6
#> 10 Erlotinib_h…              20114                    252                    155
#> # ℹ 17 more rows
#> # ℹ abbreviated names: ¹​Significantly_upregulated, ²​Significantly_downregulated
#> # ℹ 3 more variables: Total_significant <int>, padj_threshold <dbl>,
#> #   Log2FC_threshold <dbl>
…
