macpie • macpie
…
qc_stats$stats_summary
#> # A tibble: 83 × 6
#>    combined_id       sd_value mad_value group_median z_score    IQR
#>    <chr>                <dbl>     <dbl>        <dbl>   <dbl>  <dbl>
#>  1 5-azacytidine_0.1    2596.     3044.        51399  -0.318  2578.
#>  2 5-azacytidine_1      3740.     3222.        55824   0.143  3642.
#>  3 5-azacytidine_10     4003.     1918.        45863  -0.896  3744.
#>  4 Abemaciclib_0.1      5614.     5309.        61901   0.777  5503 
#>  5 Abemaciclib_1        3824.     4596.        52934  -0.158  3802.
#>  6 Abemaciclib_10      15634.    10562.        49929  -0.472 14964 
#>  7 Adavosertib_0.1      6519.     6166.        54307  -0.015  6390 
#>  8 Adavosertib_1        8640.     7828.        53658  -0.083  8444.
#>  9 Adavosertib_10       9935.    11819.        43491  -1.14   9874.
#> 10 Anastrozole_0.1      1691.     2114.        58986   0.473  1684.
#> # ℹ 73 more rows
…
The outputs from the analyses above can be represented in table
format.

summarise_de(mac, lfc_threshold = 1, padj_threshold = 0.01, multi=TRUE)
#> # A tibble: 27 × 7
#>    combined_id  Total_genes_tested Significantly_upregu…¹ Significantly_downre…²
#>    <chr>                     <int>                  <int>                  <int>
#>  1 Abemaciclib…              20114                     36                     46
#>  2 Adavosertib…              20114                    307                    104
#>  3 Anastrozole…              20114                      0                      1
#>  4 Azd.5991_10               20114                      0                      0
#>  5 Camptotheci…              20114                   1108                   1327
#>  6 Capivaserti…              20114                     22                     14
#>  7 Ceralaserti…              20114                    174                     88
#>  8 Chlorambuci…              20114                      0                      0
#>  9 Cytarabine_…              20114                      8                      6
#> 10 Erlotinib_h…              20114                    252                    155
#> # ℹ 17 more rows
#> # ℹ abbreviated names: ¹​Significantly_upregulated, ²​Significantly_downregulated
#> # ℹ 3 more variables: Total_significant <int>, padj_threshold <dbl>,
#> #   Log2FC_threshold <dbl>
…
